…
nsetools uses consistent prefix `nse_` for easy tab completion.

  - `nse_index_` for index
  - `nse_stock_` for stocks
  - `nse_fo_` for futures and options
  - `nse_preopen_` for preopen data

### Index

##### Fetch Indices Quote

``` r
nse_index_quote()
#> # A tibble: 55 x 4
#>    name              lastPrice  change pChange
#>    <chr>                 <dbl>   <dbl>   <dbl>
#>  1 NIFTY 50 Pre Open   11859.    18.3     0.15
#>  2 NIFTY 50            11872.    31.6     0.27
#>  3 NIFTY NEXT 50       28176.  -123      -0.43
#>  4 NIFTY100 LIQ 15      3670.    -9.1    -0.25
#>  5 NIFTY BANK          30750.   208.      0.68
#>  6 INDIA VIX              15.6   -0.81   -4.94
#>  7 NIFTY 100           12001.    20.4     0.17
#>  8 NIFTY 500            9650.    16.4     0.17
#>  9 NIFTY MIDCAP 100    16751.    52.6     0.31
#> 10 NIFTY MIDCAP 50      4572.    24.2     0.53
#> # ... with 45 more rows
```
…
##### Stocks that have touched their 52 week highs during the day

``` r
nse_stock_year_high()
#> # A tibble: 25 x 10
#>    symbol symbolDesc dt         value  year   ltp value_old  prev change
#>    <chr>  <chr>      <date>     <dbl> <dbl> <dbl>     <dbl> <dbl>  <dbl>
#>  1 ACCEL~ Accelya S~ 2018-12-05 1125. 1125. 1110      1011.  983. 127.  
#>  2 AFFLE  Affle (In~ 2019-11-13 1704. 1704. 1662      1678  1651.  11.4 
#>  3 AGROP~ Agro Phos~ 2019-11-13  123.  123.  122.      122.  122.   0.15
#>  4 ALKEM  Alkem Lab~ 2019-11-06 2080  2080  2015      2079  2066. -50.8 
#>  5 AUBANK AU Small ~ 2019-11-13  849.  849.  825       815.  808.  16.8 
#>  6 BAJAJ~ Bajaj Fin~ 2019-11-13 9091  9091  9090      9027  8978. 112.  
#>  7 COSMO~ Cosmo Fil~ 2018-11-13  266.  266.  233.      259   238.  -4.85
#>  8 CREDI~ CREDITACC~ 2019-11-13  752   752   738       745   735    3   
#>  9 DIXON  Dixon Tec~ 2019-10-10 3360. 3360. 3279.     3232  3000. 279.  
#> 10 ESSEL~ Essel Pro~ 2019-11-13  142   142   138.      142   135.   3.2 
#> # ... with 15 more rows, and 1 more variable: pChange <dbl>
```
…
