Fetch Data from National Stock Exchange (India) • nse2r
…
nse_index_ for index

nse_stock_ for stocks

nse_fo_ for futures and options

nse_preopen_ for preopen data

Index

Fetch Indices Quote

nse_index_quote()
#> # A tibble: 55 x 4
#>    index_name        last_traded_price  change percent_change
#>    <chr>                         <dbl>   <dbl>          <dbl>
#>  1 NIFTY 50 Pre Open           12047.    29.0            0.24
#>  2 NIFTY 50                    11922.   -96.9           -0.81
#>  3 NIFTY NEXT 50               27854.  -292.            -1.04
#>  4 NIFTY100 LIQ 15              3652    -82.6           -2.21
#>  5 NIFTY BANK                  31342.  -371.            -1.17
#>  6 INDIA VIX                      13.6   -0.66          -4.65
#>  7 NIFTY 100                   12025.  -102.            -0.84
#>  8 NIFTY 500                    9669.   -88.2           -0.9 
#>  9 NIFTY MIDCAP 100            16732   -248.            -1.46
#> 10 NIFTY MIDCAP 50              4556.   -87.6           -1.89
#> # ... with 45 more rows
…
Advances & Declines

nse_advances_declines()
#> # A tibble: 59 x 4
#>    index_name      advances declines unchanged
#>    <chr>              <dbl>    <dbl>     <dbl>
#>  1 NIFTY 50               9       41         0
#>  2 NIFTY NEXT 50         11       39         0
#>  3 NIFTY IT               1        9         0
#>  4 NIFTY BANK             1       11         0
#>  5 NIFTY MIDCAP 50        3       47         0
#>  6 NIFTY INFRA            6       24         0
#>  7 NIFTY REALTY           3        7         0
#>  8 NIFTY ENERGY           1        9         0
#>  9 NIFTY FMCG             2       13         0
#> 10 NIFTY MNC              8       22         0
#> # ... with 49 more rows
…
