introduction-to-nsetools • nsetools
…
nse_stock_ for stocks

nse_fo_ for futures and options

nse_preopen_ for preopen data

library(nsetools)

Stocks

Let us fetch the stock symbols and names from NSE.

nse_stock_code()
#> # A tibble: 1,640 x 2
#>    SYMBOL     NAME.OF.COMPANY                         
#>    <chr>      <chr>                                   
#>  1 20MICRONS  20 Microns Limited                      
#>  2 21STCENMGM 21st Century Management Services Limited
#>  3 3IINFOTECH 3i Infotech Limited                     
#>  4 3MINDIA    3M India Limited                        
#>  5 3PLAND     3P Land Holdings Limited                
#>  6 5PAISA     5Paisa Capital Limited                  
#>  7 63MOONS    63 moons technologies limited           
#>  8 A2ZINFRA   A2Z Infra Engineering Limited           
#>  9 AARTIDRUGS Aarti Drugs Limited                     
#> 10 AARTIIND   Aarti Industries Limited                
#> # ... with 1,630 more rows
…
Fetch stocks that have touched their 52 week highs during the day on NSE.

nse_stock_year_high()
#> # A tibble: 21 x 10
#>    symbol symbolDesc dt           value    year    ltp value_old   prev
#>    <chr>  <chr>      <date>       <dbl>   <dbl>  <dbl>     <dbl>  <dbl>
#>  1 AGROP~ Agro Phos~ 2019-11-14  123.    123.    122.     123.    122. 
#>  2 ANKIT~ Ankit Met~ 2019-08-06    0.65    0.65    0.6      0.65    0.6
#>  3 BAJAJ~ Bajaj Fin~ 2019-11-14 9139    9139    9125.    9091    9062. 
#>  4 BANSW~ Banswara ~ 2018-11-16  102.    102.     91.5     99.3    89.1
#>  5 BHARA~ Bharat Ra~ 2019-11-08 7020    7020    6680     6775.   6599. 
#>  6 CREDI~ CREDITACC~ 2019-11-14  777     777     765      752     732. 
#>  7 DIXON  Dixon Tec~ 2019-11-14 3375    3375    3321.    3360.   3263. 
#>  8 FORTIS Fortis He~ 2019-11-11  161     161     146.     160.    156. 
#>  9 GMMPF~ GMM Pfaud~ 2019-11-14 1728.   1728.   1713     1675.   1642. 
#> 10 HDFCB~ HDFC Bank~ 2019-09-23 1284.   1284.   1281.    1283.   1274. 
#> # ... with 11 more rows, and 2 more variables: change <dbl>, pChange <dbl>

Fetch stocks that have touched their 52 week lows during the day on NSE.

nse_stock_year_low()
#> # A tibble: 63 x 10
#>    symbol symbolDesc dt          value   year    ltp value_old  prev change
#>    <chr>  <chr>      <date>      <dbl>  <dbl>  <dbl>     <dbl> <dbl>  <dbl>
#>  1 AGRIT~ Agri-Tech~ 2019-08-23  41.5   41.5   43.5      41.6   44.5  -1   
#>  2 APCOT~ Apcotex I~ 2019-11-14 160.   160.   161.      160.   162.   -1.4 
#>  3 ARVIN~ Arvind Fa~ 2019-11-13 365.   365.   369.      380    386.  -16.6 
#>  4 BGREN~ BGR Energ~ 2019-11-14  29.3   29.3   29.8      30.6   30.7  -0.95
#>  5 BKMIN~ Bkm Indus~ 2019-11-14   0.65   0.65   0.65      0.7    0.7  -0.05
#>  6 BLS    BLS Inter~ 2019-11-13  58.0   58.0   58        60.5   64.4  -6.4 
#>  7 BRNL   Bharat Ro~ 2019-11-13  60     60     60.8      60     60.7   0.1 
#>  8 COMPI~ Compuage ~ 2019-11-11   8      8      9.75      8.15   8.6   1.15
#>  9 DEN    Den Netwo~ 2019-11-14  39.0   39.0   39.0      41.0   41    -2.05
#> 10 DGCON~ Digiconte~ 2019-11-14   3.8    3.8    3.8       4      4    -0.2 
#> # ... with 53 more rows, and 1 more variable: pChange <dbl>

Check if stock code is valid.

nse_stock_valid("inf")
#> [1] FALSE
nse_stock_valid("infy")
#> [1] TRUE

Index

List NSE indices.

nse_index_list()
#> # A tibble: 55 x 1
#>    name             
#>    <chr>            
#>  1 NIFTY 50 Pre Open
#>  2 NIFTY 50         
#>  3 NIFTY NEXT 50    
#>  4 NIFTY100 LIQ 15  
#>  5 NIFTY BANK       
#>  6 INDIA VIX        
#>  7 NIFTY 100        
#>  8 NIFTY 500        
#>  9 NIFTY MIDCAP 100 
#> 10 NIFTY MIDCAP 50  
#> # ... with 45 more rows

NSE indices quote.

nse_index_quote()
#> # A tibble: 55 x 4
#>    name              lastPrice change pChange
#>    <chr>                 <dbl>  <dbl>   <dbl>
#>  1 NIFTY 50 Pre Open   11904.   32.1     0.27
#>  2 NIFTY 50            11932.   59.6     0.5 
#>  3 NIFTY NEXT 50       28261.   85.6     0.3 
#>  4 NIFTY100 LIQ 15      3689.   19.6     0.53
#>  5 NIFTY BANK          31045   295.      0.96
#>  6 INDIA VIX              15.1  -0.54   -3.46
#>  7 NIFTY 100           12058.   57.2     0.48
#>  8 NIFTY 500            9692.   41.2     0.43
#>  9 NIFTY MIDCAP 100    16808.   56.4     0.34
#> 10 NIFTY MIDCAP 50      4595.   23       0.5 
#> # ... with 45 more rows
…
Futures & Options

Fetch futures and options lot size from NSE.

nse_fo_lotsizes()
#> $indices
#> # A tibble: 3 x 4
#>   UNDERLYING SYMBOL NOV.19 DEC.19
#>   <chr>      <chr>  <chr>  <chr> 
#> 1 NIFTY BANK 19     19     20    
#> 2 NIFTY 50   102    57     58    
#> 3 NIFTY IT   103    48     49    
#> 
#> $stocks
#> # A tibble: 148 x 4
#>    UNDERLYING                SYMBOL NOV.19 DEC.19
#>    <chr>                     <chr>  <chr>  <chr> 
#>  1 ACC LIMITED               1      43     44    
#>  2 ADANI ENTERPRISES LIMITED 2      44     45    
#>  3 ADANI POWER LTD           4      3      4     
#>  4 AMARA RAJA BATTERIES LTD. 5      55     56    
#>  5 APOLLO HOSPITALS ENTER. L 7      49     50    
#>  6 APOLLO TYRES LTD          8      34     35    
#>  7 AUROBINDO PHARMA LTD      11     2      3     
#>  8 ADANI PORT & SEZ LTD      3      27     28    
#>  9 BAJAJ AUTO LIMITED        13     26     27    
#> 10 BAJAJ FINSERV LTD.        14     8      9     
#> # ... with 138 more rows
…
Preopen Data

Fetch data of pre open session of futures and options from NSE.

nse_preopen_fo()
#> # A tibble: 148 x 17
#>    symbol series xDt        caAct   iep   chn perChn   pCls trdQnty  iVal
#>    <chr>  <chr>  <date>     <chr> <dbl> <dbl>  <dbl>  <dbl>   <dbl> <dbl>
#>  1 IDEA   EQ     NA         <NA>    2.7 -0.25  -8.47   2.95 2931259  79.1
#>  2 INFRA~ EQ     2019-08-22 INTE~ 204.  -4.7   -2.25 209.     30841  62.9
#>  3 DISHTV EQ     NA         <NA>   13.2 -0.2   -1.49  13.4    82837  10.9
#>  4 UNION~ EQ     NA         <NA>   51.6 -0.7   -1.34  52.3   110928  57.2
#>  5 SAIL   EQ     2019-08-22 ANNU~  36.8 -0.5   -1.34  37.3   156232  57.5
#>  6 BHART~ EQ     NA         <NA>  358.  -4.65  -1.28 362.    169271 606. 
#>  7 GLENM~ EQ     2019-09-19 ANNU~ 298.  15.8    5.58 282.     70812 211. 
#>  8 ASHOK~ EQ     NA         <NA>   82.9  3.9    4.94  79     399119 331. 
#>  9 TATAM~ EQ     NA         <NA>   78.5  1.85   2.41  76.6    32846  25.8
#> 10 SBIN   EQ     NA         <NA>  312    6      1.96 306     179165 559. 
#> # ... with 138 more rows, and 7 more variables: mktCap <dbl>, yHigh <dbl>,
#> #   yLow <dbl>, sumVal <dbl>, sumQnty <dbl>, finQnty <dbl>,
#> #   sumfinQnty <dbl>

Fetch data of pre open session of Nifty from NSE.

nse_preopen_nifty()
#> # A tibble: 50 x 17
#>    symbol series xDt        caAct    iep    chn perChn   pCls trdQnty  iVal
#>    <chr>  <chr>  <date>     <chr>  <dbl>  <dbl>  <dbl>  <dbl>   <dbl> <dbl>
#>  1 INFRA~ EQ     2019-08-22 INTE~   204.  -4.7   -2.25   209.   30841  62.9
#>  2 BHART~ EQ     NA         <NA>    358.  -4.65  -1.28   362.  169271 606. 
#>  3 SBIN   EQ     NA         <NA>    312    6      1.96   306   179165 559. 
#>  4 EICHE~ EQ     NA         <NA>  21850  292.     1.35 21558.     382  83.5
#>  5 VEDL   EQ     NA         <NA>    146.   1.8    1.25   144    44546  65.0
#>  6 TATAM~ EQ     NA         <NA>    169    1.95   1.17   167.   97312 164. 
#>  7 ULTRA~ EQ     NA         <NA>   4044.  40.4    1.01  4003.    1648  66.6
#>  8 CIPLA  EQ     NA         <NA>    448   -3.4   -0.75   451.   11457  51.3
#>  9 HINDU~ EQ     2019-10-23 INTE~  2062.  -6.8   -0.33  2069.    1713  35.3
#> 10 HDFC   EQ     NA         <NA>   2220.  -6.7   -0.3   2227.    5664 126. 
#> # ... with 40 more rows, and 7 more variables: mktCap <dbl>, yHigh <dbl>,
#> #   yLow <dbl>, sumVal <dbl>, sumQnty <dbl>, finQnty <dbl>,
#> #   sumfinQnty <dbl>
…
Advances & Declines

NSE indices advances & declines.

nse_advances_declines()
#> # A tibble: 57 x 4
#>    indice          advances declines unchanged
#>    <chr>              <dbl>    <dbl>     <dbl>
#>  1 NIFTY 50              25       22         3
#>  2 NIFTY NEXT 50         31       19         0
#>  3 NIFTY IT               7        3         0
#>  4 NIFTY BANK             8        3         1
#>  5 NIFTY MIDCAP 50       29       21         0
#>  6 NIFTY INFRA           19       10         1
#>  7 NIFTY REALTY           5        5         0
#>  8 NIFTY ENERGY           5        4         1
#>  9 NIFTY FMCG             8        7         0
#> 10 NIFTY MNC             19       11         0
#> # ... with 47 more rows
…
