introduction-to-nse2r • nse2r
…
Fetch stocks that have touched their 52 week highs during the day on NSE.

nse_stock_year_high()
#> # A tibble: 23 x 10
#>    symbol symbolDesc dt           value    year     ltp value_old    prev
#>    <chr>  <chr>      <date>       <dbl>   <dbl>   <dbl>     <dbl>   <dbl>
#>  1 ABBOT~ Abbott In~ 2019-11-04 1.25e+4 1.25e+4 12382    12400    12043. 
#>  2 AGROP~ Agro Phos~ 2019-11-14 1.23e+2 1.23e+2   122.     123.     122. 
#>  3 ANKIT~ Ankit Met~ 2019-08-06 6.50e-1 6.50e-1     0.6      0.65     0.6
#>  4 BAJAJ~ Bajaj Fin~ 2019-11-14 9.14e+3 9.14e+3  9132.    9091     9062. 
#>  5 BANSW~ Banswara ~ 2018-11-16 1.02e+2 1.02e+2    91.8     99.3     89.1
#>  6 BHARA~ Bharat Ra~ 2019-11-08 7.02e+3 7.02e+3  6690.    6775.    6599. 
#>  7 CREDI~ CREDITACC~ 2019-11-14 7.77e+2 7.77e+2   767.     752      732. 
#>  8 DIXON  Dixon Tec~ 2019-11-14 3.38e+3 3.38e+3  3315.    3360.    3263. 
#>  9 FORTIS Fortis He~ 2019-11-11 1.61e+2 1.61e+2   145.     160.     156. 
#> 10 GMMPF~ GMM Pfaud~ 2019-11-14 1.73e+3 1.73e+3  1716.    1675.    1642. 
#> # ... with 13 more rows, and 2 more variables: change <dbl>, pChange <dbl>

Fetch stocks that have touched their 52 week lows during the day on NSE.

nse_stock_year_low()
#> # A tibble: 66 x 10
#>    symbol symbolDesc dt          value   year    ltp value_old  prev change
#>    <chr>  <chr>      <date>      <dbl>  <dbl>  <dbl>     <dbl> <dbl>  <dbl>
#>  1 AGRIT~ Agri-Tech~ 2019-08-23  41.5   41.5   43.4      41.6   44.5  -1.05
#>  2 APCOT~ Apcotex I~ 2019-11-14 160.   160.   160.      160.   162.   -2.05
#>  3 ARVIN~ Arvind Fa~ 2019-11-13 365.   365.   370.      380    386.  -16.0 
#>  4 BGREN~ BGR Energ~ 2019-11-14  29.3   29.3   29.8      30.6   30.7  -0.85
#>  5 BKMIN~ Bkm Indus~ 2019-11-14   0.65   0.65   0.7       0.7    0.7   0   
#>  6 BLS    BLS Inter~ 2019-11-13  57.5   57.5   57.8      60.5   64.4  -6.65
#>  7 BRNL   Bharat Ro~ 2019-11-13  60     60     60.2      60     60.7  -0.5 
#>  8 COMPI~ Compuage ~ 2019-11-11   8      8      9.75      8.15   8.6   1.15
#>  9 DEN    Den Netwo~ 2019-11-14  39.0   39.0   39.8      41.0   41    -1.2 
#> 10 DGCON~ Digiconte~ 2019-11-14   3.8    3.8    3.8       4      4    -0.2 
#> # ... with 56 more rows, and 1 more variable: pChange <dbl>

Index

List NSE indices.

nse_index_list()
#> # A tibble: 55 x 1
#>    name             
#>    <chr>            
#>  1 NIFTY 50 Pre Open
#>  2 NIFTY 50         
#>  3 NIFTY NEXT 50    
#>  4 NIFTY100 LIQ 15  
#>  5 NIFTY BANK       
#>  6 INDIA VIX        
#>  7 NIFTY 100        
#>  8 NIFTY 500        
#>  9 NIFTY MIDCAP 100 
#> 10 NIFTY MIDCAP 50  
#> # ... with 45 more rows

NSE indices quote.

nse_index_quote()
#> # A tibble: 55 x 4
#>    name              lastPrice change pChange
#>    <chr>                 <dbl>  <dbl>   <dbl>
#>  1 NIFTY 50 Pre Open   11904.   32.1     0.27
#>  2 NIFTY 50            11942.   70.4     0.59
#>  3 NIFTY NEXT 50       28266.   90.8     0.32
#>  4 NIFTY100 LIQ 15      3694.   24.4     0.66
#>  5 NIFTY BANK          31086.  336       1.09
#>  6 INDIA VIX              15.0  -0.68   -4.34
#>  7 NIFTY 100           12068    66.9     0.56
#>  8 NIFTY 500            9700.   49.6     0.51
#>  9 NIFTY MIDCAP 100    16832.   81.2     0.48
#> 10 NIFTY MIDCAP 50      4606.   33.4     0.73
#> # ... with 45 more rows
…
Preopen Data

Fetch data of pre open session of futures and options from NSE.

nse_preopen_fo()
#> # A tibble: 148 x 17
#>    symbol series xDt        caAct   iep   chn perChn   pCls trdQnty  iVal
#>    <chr>  <chr>  <date>     <chr> <dbl> <dbl>  <dbl>  <dbl>   <dbl> <dbl>
#>  1 IDEA   EQ     NA         <NA>    2.7 -0.25  -8.47   2.95 2931259  79.1
#>  2 INFRA~ EQ     2019-08-22 INTE~ 204.  -4.7   -2.25 209.     30841  62.9
#>  3 DISHTV EQ     NA         <NA>   13.2 -0.2   -1.49  13.4    82837  10.9
#>  4 UNION~ EQ     NA         <NA>   51.6 -0.7   -1.34  52.3   110928  57.2
#>  5 SAIL   EQ     2019-08-22 ANNU~  36.8 -0.5   -1.34  37.3   156232  57.5
#>  6 BHART~ EQ     NA         <NA>  358.  -4.65  -1.28 362.    169271 606. 
#>  7 GLENM~ EQ     2019-09-19 ANNU~ 298.  15.8    5.58 282.     70812 211. 
#>  8 ASHOK~ EQ     NA         <NA>   82.9  3.9    4.94  79     399119 331. 
#>  9 TATAM~ EQ     NA         <NA>   78.5  1.85   2.41  76.6    32846  25.8
#> 10 SBIN   EQ     NA         <NA>  312    6      1.96 306     179165 559. 
#> # ... with 138 more rows, and 7 more variables: mktCap <dbl>, yHigh <dbl>,
#> #   yLow <dbl>, sumVal <dbl>, sumQnty <dbl>, finQnty <dbl>,
#> #   sumfinQnty <dbl>

Fetch data of pre open session of Nifty from NSE.

nse_preopen_nifty()
#> # A tibble: 50 x 17
#>    symbol series xDt        caAct    iep    chn perChn   pCls trdQnty  iVal
#>    <chr>  <chr>  <date>     <chr>  <dbl>  <dbl>  <dbl>  <dbl>   <dbl> <dbl>
#>  1 INFRA~ EQ     2019-08-22 INTE~   204.  -4.7   -2.25   209.   30841  62.9
#>  2 BHART~ EQ     NA         <NA>    358.  -4.65  -1.28   362.  169271 606. 
#>  3 SBIN   EQ     NA         <NA>    312    6      1.96   306   179165 559. 
#>  4 EICHE~ EQ     NA         <NA>  21850  292.     1.35 21558.     382  83.5
#>  5 VEDL   EQ     NA         <NA>    146.   1.8    1.25   144    44546  65.0
#>  6 TATAM~ EQ     NA         <NA>    169    1.95   1.17   167.   97312 164. 
#>  7 ULTRA~ EQ     NA         <NA>   4044.  40.4    1.01  4003.    1648  66.6
#>  8 CIPLA  EQ     NA         <NA>    448   -3.4   -0.75   451.   11457  51.3
#>  9 HINDU~ EQ     2019-10-23 INTE~  2062.  -6.8   -0.33  2069.    1713  35.3
#> 10 HDFC   EQ     NA         <NA>   2220.  -6.7   -0.3   2227.    5664 126. 
#> # ... with 40 more rows, and 7 more variables: mktCap <dbl>, yHigh <dbl>,
#> #   yLow <dbl>, sumVal <dbl>, sumQnty <dbl>, finQnty <dbl>,
#> #   sumfinQnty <dbl>
…
Advances & Declines

NSE indices advances & declines.

nse_advances_declines()
#> # A tibble: 57 x 4
#>    indice          advances declines unchanged
#>    <chr>              <dbl>    <dbl>     <dbl>
#>  1 NIFTY 50              28       22         0
#>  2 NIFTY NEXT 50         31       19         0
#>  3 NIFTY IT               8        2         0
#>  4 NIFTY BANK             9        3         0
#>  5 NIFTY MIDCAP 50       31       18         1
#>  6 NIFTY INFRA           17       13         0
#>  7 NIFTY REALTY           5        5         0
#>  8 NIFTY ENERGY           5        5         0
#>  9 NIFTY FMCG             9        6         0
#> 10 NIFTY MNC             19       11         0
#> # ... with 47 more rows
…
