52 week high & low — nse_stock_high_low • nse2r
…
# 52 week low
nse_stock_year_low()
#> # A tibble: 76 x 10
#>    symbol symbol_desc date       new_low   year last_traded_pri~ prev_low
#>    <chr>  <chr>       <date>       <dbl>  <dbl>            <dbl>    <dbl>
#>  1 A2ZIN~ A2Z Infra ~ 2019-12-06    7.95   7.95             8.05     8.2 
#>  2 AIFL   Ashapura I~ 2019-12-02    1.5    1.5              1.5      1.55
#>  3 AIONJ~ Monnet Isp~ 2019-10-11    9.05   9.05             9.65     9.25
#>  4 AIRAN  Airan Limi~ 2019-12-06    8.8    8.8              9.95     9.6 
#>  5 ALBK   Allahabad ~ 2019-12-06   21.6   21.6             21.7     22.2 
#>  6 APARI~ Apar Indus~ 2019-12-06  420.   420.             424      428   
#>  7 ARIHA~ Arihant Su~ 2019-12-03   22.8   22.8             22.8     22.8 
#>  8 ARVIND Arvind Lim~ 2019-12-05   37.2   37.2             37.4     37.4 
#>  9 ASHIA~ Ashiana Ho~ 2019-12-02   86     86               87.0     87.6 
#> 10 BHAGE~ Bhageria I~ 2019-12-06   89.6   89.6             92.4     93.5 
#> # ... with 66 more rows, and 3 more variables: prev_close <dbl>, change <dbl>,
#> #   percent_change <dbl>

# retain original column names as returned by NSE
nse_stock_year_low(clean_names = FALSE)
#> # A tibble: 76 x 10
#>    symbol symbolDesc dt          value   year    ltp value_old   prev change
#>    <chr>  <chr>      <date>      <dbl>  <dbl>  <dbl>     <dbl>  <dbl>  <dbl>
#>  1 A2ZIN~ A2Z Infra~ 2019-12-06   7.95   7.95   8.05      8.2    8.3   -0.25
#>  2 AIFL   Ashapura ~ 2019-12-02   1.5    1.5    1.5       1.55   1.55  -0.05
#>  3 AIONJ~ Monnet Is~ 2019-10-11   9.05   9.05   9.65      9.25   9.9   -0.25
#>  4 AIRAN  Airan Lim~ 2019-12-06   8.8    8.8    9.95      9.6    9.7    0.25
#>  5 ALBK   Allahabad~ 2019-12-06  21.6   21.6   21.7      22.2   22.3   -0.6 
#>  6 APARI~ Apar Indu~ 2019-12-06 420.   420.   424       428    431.    -7.1 
#>  7 ARIHA~ Arihant S~ 2019-12-03  22.8   22.8   22.8      22.8   24     -1.2 
#>  8 ARVIND Arvind Li~ 2019-12-05  37.2   37.2   37.4      37.4   38.2   -0.9 
#>  9 ASHIA~ Ashiana H~ 2019-12-02  86     86     87.0      87.6   88.6   -1.5 
#> 10 BHAGE~ Bhageria ~ 2019-12-06  89.6   89.6   92.4      93.5   94     -1.6 
#> # ... with 66 more rows, and 1 more variable: pChange <dbl>
…
