Pre open F & O — nse_preopen_fo • nsetools
…
      News

    Pre open F & O

    nse_preopen_fo.Rd

    Fetch data of pre open session of futures and options from NSE.

nse_preopen_fo()

    Examples

nse_preopen_fo()
#> # A tibble: 148 x 17
#>    symbol series xDt        caAct   iep   chn perChn   pCls trdQnty  iVal mktCap
#>    <chr>  <chr>  <date>     <chr> <dbl> <dbl>  <dbl>  <dbl>   <dbl> <dbl>  <dbl>
#>  1 IDEA   EQ     NA         NA      2.7 -0.25  -8.47   2.95 2931259  79.1 2.20e3
#>  2 INFRA~ EQ     2019-08-22 INTE~ 204.  -4.7   -2.25 209.     30841  62.9 1.78e4
#>  3 DISHTV EQ     NA         NA     13.2 -0.2   -1.49  13.4    82837  10.9 9.38e2
#>  4 UNION~ EQ     NA         NA     51.6 -0.7   -1.34  52.3   110928  57.2 2.03e3
#>  5 SAIL   EQ     2019-08-22 ANNU~  36.8 -0.5   -1.34  37.3   156232  57.5 3.85e3
#>  6 BHART~ EQ     NA         NA    358.  -4.65  -1.28 362.    169271 606.  6.88e4
#>  7 GLENM~ EQ     2019-09-19 ANNU~ 298.  15.8    5.58 282.     70812 211.  4.22e3
#>  8 ASHOK~ EQ     NA         NA     82.9  3.9    4.94  79     399119 331.  1.14e4
#>  9 TATAM~ EQ     NA         NA     78.5  1.85   2.41  76.6    32846  25.8 3.90e3
#> 10 SBIN   EQ     NA         NA    312    6      1.96 306     179165 559.  1.17e5
#> # ... with 138 more rows, and 6 more variables: yHigh <dbl>, yLow <dbl>,
#> #   sumVal <dbl>, sumQnty <dbl>, finQnty <dbl>, sumfinQnty <dbl>
…
