Advance declines — nse_advances_declines • nsetools
…
nse_advances_declines()

    Examples

nse_fo_lotsizes()
#> $indices
#> # A tibble: 3 x 4
#>   UNDERLYING SYMBOL NOV.19 DEC.19
#>   <chr>      <chr>  <chr>  <chr> 
#> 1 NIFTY BANK 19     19     20    
#> 2 NIFTY 50   102    57     58    
#> 3 NIFTY IT   103    48     49    
#> 
#> $stocks
#> # A tibble: 148 x 4
#>    UNDERLYING                SYMBOL NOV.19 DEC.19
#>    <chr>                     <chr>  <chr>  <chr> 
#>  1 ACC LIMITED               1      43     44    
#>  2 ADANI ENTERPRISES LIMITED 2      44     45    
#>  3 ADANI POWER LTD           4      3      4     
#>  4 AMARA RAJA BATTERIES LTD. 5      55     56    
#>  5 APOLLO HOSPITALS ENTER. L 7      49     50    
#>  6 APOLLO TYRES LTD          8      34     35    
#>  7 AUROBINDO PHARMA LTD      11     2      3     
#>  8 ADANI PORT & SEZ LTD      3      27     28    
#>  9 BAJAJ AUTO LIMITED        13     26     27    
#> 10 BAJAJ FINSERV LTD.        14     8      9     
#> # ... with 138 more rows
…
