Pre Open market data — preopen_nifty • nse2r
…
valueValue (in lakhs),

mkt_capFree float market capitalization (in crores).

year_highNormal market 52 week high.

year_lowNormal market 52 week low.

    Examples

# \donttest{
# nifty
nse_preopen_nifty()
#> # A tibble: 50 x 17
#>    symbol series corp_action_date corp_action price change percent_change
#>    <chr>  <chr>  <date>           <chr>       <dbl>  <dbl>          <dbl>
#>  1 MARUTI EQ     NA               NA          7007  120.            1.75 
#>  2 INFRA~ EQ     NA               NA           258   -1.7          -0.65 
#>  3 INDUS~ EQ     NA               NA          1457   -8.85         -0.6  
#>  4 AXISB~ EQ     NA               NA           713.  -4.15         -0.580
#>  5 JSWST~ EQ     NA               NA           253   -1.1          -0.43 
#>  6 SBIN   EQ     NA               NA           319.  -1.05         -0.33 
#>  7 BPCL   EQ     NA               NA           487.  -1.05         -0.21 
#>  8 ITC    EQ     NA               NA           243   -0.35         -0.14 
#>  9 ICICI~ EQ     NA               NA           524.  -0.75         -0.14 
#> 10 WIPRO  EQ     NA               NA           241.  -0.2          -0.08 
#> # ... with 40 more rows, and 10 more variables: prev_close <dbl>,
#> #   quantity <dbl>, value <dbl>, mkt_cap <dbl>, year_high <dbl>,
#> #   year_low <dbl>, sum_val <dbl>, sum_quantity <dbl>, fin_quantity <dbl>,
#> #   sum_fin_quantity <dbl>

# retain original column names as returned by NSE
nse_preopen_nifty(clean_names = FALSE)
#> # A tibble: 50 x 17
#>    symbol series xDt        caAct   iep    chn perChn  pCls trdQnty  iVal mktCap
#>    <chr>  <chr>  <date>     <chr> <dbl>  <dbl>  <dbl> <dbl>   <dbl> <dbl>  <dbl>
#>  1 MARUTI EQ     NA         NA    7007  120.    1.75  6887.    5594 392.  9.15e4
#>  2 INFRA~ EQ     NA         NA     258   -1.7  -0.65   260.   24591  63.4 2.21e4
#>  3 INDUS~ EQ     NA         NA    1457   -8.85 -0.6   1466.    3829  55.8 8.84e4
#>  4 AXISB~ EQ     NA         NA     713.  -4.15 -0.580  718.   22777 162.  1.60e5
#>  5 JSWST~ EQ     NA         NA     253   -1.1  -0.43   254.    5663  14.3 2.58e4
#>  6 SBIN   EQ     NA         NA     319.  -1.05 -0.33   320   112019 357.  1.23e5
#>  7 BPCL   EQ     NA         NA     487.  -1.05 -0.21   488.   13495  65.8 3.92e4
#>  8 ITC    EQ     NA         NA     243   -0.35 -0.14   243.   20211  49.1 2.09e5
#>  9 ICICI~ EQ     NA         NA     524.  -0.75 -0.14   525.   32809 172.  3.39e5
#> 10 WIPRO  EQ     NA         NA     241.  -0.2  -0.08   241     7231  17.4 3.58e4
#> # ... with 40 more rows, and 6 more variables: yHigh <dbl>, yLow <dbl>,
#> #   sumVal <dbl>, sumQnty <dbl>, finQnty <dbl>, sumfinQnty <dbl>
…
